[IP:::1,Date:2016-08-25 10:27:52:495]2016/8/25 10:27:52
测试功能：网银通知信息
商户编号：10000457067
商户密钥：U26po59182dV8d7654bo24o5z369408u4sQ3To9j6QuopAbo3gwj4h33mro4
通知方式：GET
通知信息：[p1_MerId,10000457067]  [r0_Cmd,Buy]  [r1_Code,1]  [r2_TrxId,818278075201825J]  [r3_Amt,1.01]  [r4_Cur,RMB]  [r5_Pid,]  [r6_Order,Onlince824a526fo]  [r7_Uid,]  [r8_MP,0]  [r9_BType,1]  [rb_BankId,CCB-NET]  [ro_BankOrderId,5009714354160825]  [rp_PayDate,20160825102748]  [rq_CardNo,]  [ru_Trxtime,20160825102749]  [rq_SourceFee,0.0]  [rq_TargetFee,0.0]  [hmac_safe,eec8f6a0875eb3be01ed00426fdff5d5]  [hmac,14283a816007540a6c68398b44ded06f]  
加密的字符串：10000457067Buy1818278075201825J1.01RMBOnlince824a526fo01
远程请求hmac：14283a816007540a6c68398b44ded06f
本地生成hmac：14283a816007540a6c68398b44ded06f
验签结果：hmac验签成功！
加密的字符串：10000457067#Buy#1#818278075201825J#1.01#RMB#Onlince824a526fo#0#1
远程请求hmac_safe：14283a816007540a6c68398b44ded06f
本地生成hmac_safe：eec8f6a0875eb3be01ed00426fdff5d5
验签结果：hmac_safe验签成功！


[IP:::1,Date:2016-08-25 10:27:59:526]2016/8/25 10:27:59
测试功能：网银通知信息
商户编号：10000457067
商户密钥：U26po59182dV8d7654bo24o5z369408u4sQ3To9j6QuopAbo3gwj4h33mro4
通知方式：GET
通知信息：[p1_MerId,10000457067]  [r0_Cmd,Buy]  [r1_Code,1]  [r2_TrxId,818278075201825J]  [r3_Amt,1.01]  [r4_Cur,RMB]  [r5_Pid,]  [r6_Order,Onlince824a526fo]  [r7_Uid,]  [r8_MP,0]  [r9_BType,1]  [rb_BankId,CCB-NET]  [ro_BankOrderId,5009714354160825]  [rp_PayDate,20160825102748]  [rq_CardNo,]  [ru_Trxtime,20160825102758]  [rq_SourceFee,0.0]  [rq_TargetFee,0.0]  [hmac_safe,eec8f6a0875eb3be01ed00426fdff5d5]  [hmac,14283a816007540a6c68398b44ded06f]  
加密的字符串：10000457067Buy1818278075201825J1.01RMBOnlince824a526fo01
远程请求hmac：14283a816007540a6c68398b44ded06f
本地生成hmac：14283a816007540a6c68398b44ded06f
验签结果：hmac验签成功！
加密的字符串：10000457067#Buy#1#818278075201825J#1.01#RMB#Onlince824a526fo#0#1
远程请求hmac_safe：14283a816007540a6c68398b44ded06f
本地生成hmac_safe：eec8f6a0875eb3be01ed00426fdff5d5
验签结果：hmac_safe验签成功！


